…
### MFHI component indicators 


::: {.cell .caption-margin}
::: {.cell-output .cell-output-stdout}

```
# A tibble: 33 × 20
   indicator indicator_domain indicator_category indicator_stem indicator_branch
   <chr>     <chr>            <chr>              <chr>          <chr>           
 1 mfhi_sco… Financial healt… MFHI (gradated)    Managing day … Score (mean)    
 2 mfhi_sco… Financial healt… MFHI (gradated)    Coping with r… Score (mean)    
 3 mfhi_sco… Financial healt… MFHI (gradated)    Investing in … Score (mean)    
 4 mfhi_sco… Financial healt… MFHI (gradated)    Managing day … Score (mean)    
 5 mfhi_sco… Financial healt… MFHI (gradated)    Managing day … Score (mean)    
 6 mfhi_sco… Financial healt… MFHI (gradated)    Coping with r… Score (mean)    
 7 mfhi_sco… Financial healt… MFHI (gradated)    Coping with r… Score (mean)    
 8 mfhi_sco… Financial healt… MFHI (gradated)    Investing in … Score (mean)    
 9 mfhi_sco… Financial healt… MFHI (gradated)    Investing in … Score (mean)    
10 mfhi_sco… Financial healt… MFHI (gradated)    Managing day … Score (mean)    
# ℹ 23 more rows
# ℹ 15 more variables: group <chr>, group_name <chr>, group_cat_val <chr>,
#   nobs <int>, total <dbl>, total_low <dbl>, total_upp <dbl>, mean <dbl>,
#   mean_low <dbl>, mean_upp <dbl>, median <dbl>, median_low <dbl>,
#   median_upp <dbl>, indicator_name <chr>, indicator_group <chr>
```
…
